



[
  {
    "id": "001",
    "name": "Anant",
    "description":"i am Anant"
  },
  {
    "id": "#002",
    "name": "Mills",
    "description":"i am Mills"
  },
  {
    "id": "#003",
    "name": "John",
    "description":"i am John"
  }
]